<?xml version="1.0" encoding="utf-8"?>
<!-- Generator: Adobe Illustrator 21.0.2, SVG Export Plug-In . SVG Version: 6.00 Build 0)  -->
<svg version="1.1" id="Layer_1" xmlns="http://www.w3.org/2000/svg" xmlns:xlink="http://www.w3.org/1999/xlink" x="0px" y="0px"
	 viewBox="0 0 64 64" style="enable-background:new 0 0 64 64;" xml:space="preserve">
<style type="text/css">
	.st0{fill:#D2D4D3;}
</style>
<g>
	<g id="Icon-Paperclip" transform="translate(127.000000, 380.000000)">
		<path id="Fill-60" class="st0" d="M-103.7-335.5c-1.4,0-2.6-0.5-3.6-1.5c-1-1-1.5-2.2-1.5-3.6s0.5-2.6,1.5-3.6l14.4-14.4
			c2.6-2.6,6.9-2.6,9.6,0c1.3,1.3,2,3,2,4.8c0,1.8-0.7,3.5-2,4.8l-10.8,10.8l-1.1-1.1l10.8-10.8c2-2,2-5.3,0-7.3c-2-2-5.3-2-7.3,0
			l-14.4,14.4c-0.7,0.6-1,1.5-1,2.4c0,0.9,0.3,1.8,1,2.4c1.4,1.4,3.5,1.4,4.9,0l10.8-10.8c0.7-0.7,0.7-1.8,0-2.5s-1.8-0.7-2.5,0
			l-7.2,7.2l-1.1-1.1l7.2-7.2c1.3-1.3,3.4-1.3,4.7,0c1.3,1.3,1.3,3.4,0,4.7l-10.8,10.8C-101.1-336-102.4-335.5-103.7-335.5"/>
	</g>
</g>
</svg>
